=== Run information ===

Evaluator:    weka.attributeSelection.InfoGainAttributeEval 
Search:       weka.attributeSelection.Ranker -T -1.7976931348623157E308 -N -1
Relation:     spreadsheets-weka.filters.unsupervised.attribute.Reorder-R2,3,4,5,6,7,8,9,10,11,12,13,14,15,16,17,18,19,20,21,22,23,24,25,26,27,28,29,30,31,32,33,34,35,36,37,38,39,40,41,42,43,44,45,46,47,48,49,50,51,52,53,54,55,56,57,58,59,60,61,62,63,64,65,66,67,68,69,70,71,72,73,74,75,76,77,78,79,80,81,82,83,84,85,86,87,88,89,90,91,92,93,94,95,96,97,98,99,100,101,102,103,104,105,106,107,108,109,110,111,112,113,114,115,116,117,118,119,120,121,122,123,124,125,126,127,128,129,130,131,132,133,134,135,136,137,138,139,1
Instances:    4141
Attributes:   139
              [list of attributes omitted]
Evaluation mode:    evaluate on all training data



=== Attribute Selection on all input data ===

Search Method:
	Attribute ranking.

Attribute Evaluator (supervised, Class (nominal): 139 category):
	Information Gain Ranking Filter

Ranked attributes:
 0.0113     72 function_MEDIAN
 0.01083   117 function_SQRT
 0.00852    22 function_COS
 0.0072    112 function_SIN
 0.00602    93 function_PI
 0.00535    47 function_FREQUENCY
 0.00532    69 function_LOOKUP
 0.00327   100 function_RADIANS
 0.00327   101 function_RAND
 0.00324   116 function_SMALL
 0.00318    21 function_CORREL
 0.00311    78 function_MMULT
 0.00295   119 function_STDEVP
 0.00294    76 function_MINVERSE
 0.00289    59 function_ISNA
 0.00261     4 function_ASIN
 0          46 function_FIXED
 0          48 function_FV
 0          45 function_FIND
 0           3 function_ASC
 0          44 function_EXP
 0          50 function_HLOOKUP
 0          40 function_DSUM
 0          39 function_DSTDEVP
 0          41 function_DVAR
 0          43 function_EXACT
 0          42 function_DVARP
 0          49 function_GETPIVOTDATA
 0           9 function_BETAINV
 0          51 function_HOUR
 0          60 function_ISPMT
 0          58 function_ISERR
 0          61 function_ISTEXT
 0          52 function_HYPERLINK
 0          62 function_LARGE
 0          57 function_IRR
 0           2 function_ADDRESS
 0          56 function_IPMT
 0          55 function_INTERCEPT
 0          37 function_DPRODUCT
 0          53 function_INDEX
 0          54 function_INDIRECT
 0          38 function_DSTDEV
 0          35 function_DMAX
 0          36 function_DMIN
 0           8 function_AVERAGEA
 0          19 function_CONCATENATE
 0          20 function_CONFIDENCE
 0          17 function_CHOOSE
 0           7 function_AVEDEV
 0          18 function_COLUMN
 0          16 function_CHITEST
 0          10 function_BINOMDIST
 0          12 function_CELL
 0          11 function_CEILING
 0          13 function_CHAR
 0          15 function_CHIINV
 0          14 function_CHIDIST
 0           6 function_ATAN2
 0          23 function_COUNTBLANK
 0          24 function_COVAR
 0           5 function_ATAN
 0          64 function_LEN
 0          33 function_DEGREES
 0          25 function_DATE
 0          34 function_DGET
 0          32 function_DDB
 0          31 function_DCOUNTA
 0          30 function_DCOUNT
 0          29 function_DB
 0          26 function_DATEVALUE
 0          27 function_DAVERAGE
 0          28 function_DAY
 0          63 function_LEFT
 0         138 function_YEAR
 0          65 function_LINEST
 0         115 function_SLOPE
 0         114 function_SLN
 0         118 function_STDEVA
 0         111 function_SIGN
 0         120 function_STDEVPA
 0         113 function_SKEW
 0         110 function_SEARCH
 0         122 function_SUMIF
 0         106 function_ROUNDDOWN
 0         105 function_RIGHT
 0         107 function_ROUNDUP
 0         109 function_ROWS
 0         108 function_ROW
 0         121 function_SUBTOTAL
 0         123 function_SYD
 0         103 function_RATE
 0         134 function_VAR
 0         133 function_VALUE
 0         135 function_VARP
 0         131 function_TRUNC
 0         136 function_VDB
 0         132 function_UPPER
 0         130 function_TRANSPOSE
 0         124 function_T
 0         126 function_TDIST
 0         125 function_TAN
 0         127 function_TEXT
 0         129 function_TINV
 0         128 function_TIME
 0         104 function_REPLACE
 0         102 function_RANK
 0          66 function_LN
 0          79 function_MOD
 0          77 function_MIRR
 0          80 function_MODE
 0          74 function_MINA
 0          81 function_MONTH
 0          75 function_MINUTE
 0          73 function_MID
 0          83 function_NA
 0          68 function_LOG10
 0          67 function_LOG
 0         137 function_WEEKDAY
 0          71 function_MAXA
 0          70 function_MATCH
 0          82 function_N
 0          84 function_NORMDIST
 0          99 function_QUARTILE
 0          96 function_PPMT
 0          95 function_POWER
 0          97 function_PRODUCT
 0          92 function_PERCENTRANK
 0          98 function_PV
 0          94 function_PMT
 0          91 function_OFFSET
 0          85 function_NORMINV
 0          87 function_NORMSINV
 0          86 function_NORMSDIST
 0          88 function_NOT
 0          90 function_NPV
 0          89 function_NPER
 0           1 function_ACOS

Selected attributes: 72,117,22,112,93,47,69,100,101,116,21,78,119,76,59,4,46,48,45,3,44,50,40,39,41,43,42,49,9,51,60,58,61,52,62,57,2,56,55,37,53,54,38,35,36,8,19,20,17,7,18,16,10,12,11,13,15,14,6,23,24,5,64,33,25,34,32,31,30,29,26,27,28,63,138,65,115,114,118,111,120,113,110,122,106,105,107,109,108,121,123,103,134,133,135,131,136,132,130,124,126,125,127,129,128,104,102,66,79,77,80,74,81,75,73,83,68,67,137,71,70,82,84,99,96,95,97,92,98,94,91,85,87,86,88,90,89,1 : 138

